<?xml version="1.0" encoding="utf-8"?>
<!-- Generator: Adobe Illustrator 16.0.0, SVG Export Plug-In . SVG Version: 6.00 Build 0)  -->
<!DOCTYPE svg PUBLIC "-//W3C//DTD SVG 1.1//EN" "http://www.w3.org/Graphics/SVG/1.1/DTD/svg11.dtd">
<svg version="1.1" id="Layer_1" xmlns="http://www.w3.org/2000/svg" xmlns:xlink="http://www.w3.org/1999/xlink" x="0px" y="0px"
	 width="195.28px" height="441.89px" viewBox="0 0 595.28 841.89" enable-background="new 0 0 195.28 841.89" xml:space="preserve">
<g>
	<path fill-rule="evenodd" clip-rule="evenodd" fill="#FFFFFF" d="M195.141,511.72c-0.133-1.365-0.069-2.797-0.641-4.061
		c-1.432-3.166-3.946-5.287-5.224-8.814c-0.155-0.434-0.229-0.924-0.101-1.363c6.073-20.768,13.597-39.361,32.915-51.549
		c11.979-7.559,24.922-12.381,36.756-20.582c-3.155-2.074-5.517-4.551-6.826-7.488c-2.579-1.851-4.407-4.798-5.026-6.923
		c-0.457-1.566,0.165-2.01-0.045-3.917c-0.898-1.19-5.481-5.346-0.862-11.403c-1.347-1.506-2.97-5.367-1.435-8.319
		c-17.321-19.612-20.133-37.741-14.96-41.209c-4.497-11.115-6.174-15.004-1.72-20.838c-5.109-9.335-1.212-19.865,1.711-20.298
		c-1.839-4.554-2.372-10.828-0.419-14.773c0.886-1.792,2.162-2.092,4.202-3.406c0.031-1.381,0.883-5.232,2.248-7.596
		c1.363-2.363,8.998-7.651,10.556-7.37c1.112,0.113,5.065,1.843,6.403,3.292c0.282,0.632,0.555,1.275,0.82,1.927
		c2.741-2.533,7.699-5.737,8.921-5.518c1.112,0.114,5.065,1.843,6.402,3.293c4.047,9.064,6.182,20.272,12.653,29.661
		c9.428,13.679,24.794,29.03,33.257,40.331c0.238,0.317,0.469,0.631,0.695,0.941c0.641-0.347-0.107,10.431,5.291,27.834
		c0.08-17.164,0.008-31.071,0.906-32.22c2.328-2.981,4.043-7.449,3.008-10.762c-1.555-4.983-9.387-7.437-11.602-10.144
		c-5.664-6.915-7.004-11.564-6.824-17.208c0.289-9.016,3.016-15.933,10.357-19.699c6.217-3.189,15.781-3.131,29.498-1.679
		c3.064-7.74,10.887-12.969,20.502-12.969c10.494,0,19.338,6.672,21.732,15.618c0.396,1.476-1.984,1.334-2.24,2.736
		c0.324,1.292,0.494,2.637,0.494,4.015c0,9.96-8.873,18.082-19.752,18.082s-19.752-8.122-19.752-18.082
		c0-1.567,0.221-3.088,0.633-4.54c0.09-0.72-0.279-0.621-0.941-0.851c-8.623-1.076-16.518-2.14-22.717-0.705
		c-6.496,1.502-11.174,5.688-12.791,12.166c-2.402,9.622,0.457,14.573,6.602,18.542c3.002,1.938,6.787,4.237,11.125,5.582
		c6.842,2.121,16.865,2.525,22.984,5.996c3.963,2.247,3.016,5.036,7.314,5.636c2.363,3.007,7.988,1.087,10.998,4.149
		c0.609,0.619-0.869,2.208-0.33,2.883c3.217,4.037,12.658,5.906,14.207,10.407c0.34,0.986-0.166,1.939-1.631,3.213
		c0.357,1.159-1.598,6.131-2.736,6.796c-10.148-1.546-10.926-0.807-6.857,4.723c0.721,0.715,1.125,1.304,1.273,1.791
		c0.248,0.811-0.541,1.458-1.451,1.807c-1.178,2.388-3.396,3-5.768,2.91c-1.789-0.068-4.766-0.505-5.832-1.653
		c-2.43-2.616-1.307,2.578-1.385,3.176c-0.225,1.789-1.623,3.766-1.787,5.365c1.814,3.215,2.016,7.083,3.16,10.574
		c2.342,7.145,2.805,14.651,5.129,21.543c3.932,11.655,9.258,18.788,3.018,32.04c-0.09,0.188-0.184,0.371-0.287,0.553
		c0.209,1.287,0.227,2.721,0.588,3.867c3.943,12.465,7.045,38.439,14.828,48.371c3.822,4.871,17.309,1.385,20.297,8.01
		c1.633,3.619-2.664,5.502-4.541,8.109h-32.188c-1.961-2.693-2.025-6.117-3.688-8.752c-5.867-9.301-9.262-19.488-14.871-28.988
		c-1.836-3.107-5.344-5.643-6.648-9.77c-0.701-2.219-0.094-4.723-0.537-6.967c-7.594,3.701-9.166,8.678-17.004,11.529
		c-16.359,5.949-37.115,9.986-54.021,13.594c-0.17,0.035,22.568-26.609,8.125-28.951c-14.443-2.344-48.601,8.033-48.757,8.068
		c-0.076,0.08,34.222-9.051,46.483-5.906c11.52,2.957-4.521,22.252-9.506,26.42c-1.119,0.936-14.939,13.012-14.267,13.41
		c1.014,0.602,2.383,0.49,3.591,0.447c14.385-0.518,31.838-2.391,44.727,5.379c5.307,3.199,0.834,7.951-2.508,10.486H195.141
		L195.141,511.72z M262.296,422.917c4.522-2.882,3.86-2.816,5.869-5.353c-2.578-1.852-4.407-4.798-5.025-6.923
		c-0.457-1.566,0.165-2.01-0.045-3.917c-0.898-1.191-5.481-5.346-0.862-11.403c-1.347-1.507-2.97-5.367-1.434-8.319
		c-17.321-19.613-20.132-37.742-14.96-41.21c-4.497-11.115-6.174-15.003-1.72-20.838c-5.108-9.335-1.212-19.865,1.711-20.297
		c-1.839-4.554-2.372-10.828-0.42-14.773c0.887-1.793,2.162-2.092,4.203-3.406c0.018-0.79,0.304-2.386,0.8-4.051l-0.26-0.586
		c-1.188-1.288-3.057-4.318-4.044-4.419c-1.384-0.25-4.655,2.804-5.866,4.904c-1.212,2.1-0.999,5.446-1.026,6.674
		c-1.812,1.167-3.169,1.732-3.957,3.325c-1.735,3.504-2.905,10.199-1.271,14.245c-2.597,0.384-5.76,17.884-1.222,26.177
		c-3.957,5.184-3.214,5.8,0.781,15.674c-4.595,3.081,0.294,21.429,15.682,38.853c-1.364,2.623-1.566,6.65-0.37,7.989
		c-4.104,5.381-0.032,9.072,0.766,10.13c0.187,1.694-0.365,2.088,0.041,3.48c0.549,1.888,2.174,4.506,4.465,6.151
		C255.566,418.246,258.436,420.846,262.296,422.917L262.296,422.917z M380.74,286.311c1.057,1.945,1.654-0.12,1.654,5.005
		c0,5.126-6.893,14.347-15.393,14.347c-8.498,0-15.391-9.221-15.391-14.347c0-5.125,0.596-3.06,1.652-5.005H380.74L380.74,286.311z"
		/>
</g>
</svg>
